<?xml version="1.0" encoding="UTF-8" standalone="no"?>
<svg
   version="1.0"
   width="168.000000pt"
   height="136.000000pt"
   viewBox="0 0 168.000000 136.000000"
   preserveAspectRatio="xMidYMid meet"
   id="svg8"
   sodipodi:docname="icon.svg"
   inkscape:version="1.1.2 (b8e25be833, 2022-02-05)"
   xmlns:inkscape="http://www.inkscape.org/namespaces/inkscape"
   xmlns:sodipodi="http://sodipodi.sourceforge.net/DTD/sodipodi-0.dtd"
   xmlns="http://www.w3.org/2000/svg"
   xmlns:svg="http://www.w3.org/2000/svg">
  <defs
     id="defs12" />
  <sodipodi:namedview
     id="namedview10"
     pagecolor="#ffffff"
     bordercolor="#666666"
     borderopacity="1.0"
     inkscape:pageshadow="2"
     inkscape:pageopacity="0.0"
     inkscape:pagecheckerboard="0"
     inkscape:document-units="pt"
     showgrid="false"
     inkscape:zoom="4.4558824"
     inkscape:cx="67.887789"
     inkscape:cy="90.778878"
     inkscape:window-width="1920"
     inkscape:window-height="1001"
     inkscape:window-x="-9"
     inkscape:window-y="-9"
     inkscape:window-maximized="1"
     inkscape:current-layer="g6" />
  <g
     transform="translate(0.000000,136.000000) scale(0.100000,-0.100000)"
     fill="#000000"
     stroke="none"
     id="g6">
    <path
       d="M466 1046 c-188 -44 -346 -200 -391 -387 -8 -35 -15 -74 -15 -86 l0 -23 219 0 219 0 7 43 c25 150 165 258 318 245 101 -8 190 -69 235 -161 13 -26 26 -47 28 -47 12 0 -12 80 -44 144 -62 123 -188 228 -316 262 -77 21 -193 25 -260 10z"
       id="path2"
       style="fill:#d40000" />
    <path
       d="M1096 538 c-2 -7 -8 -35 -15 -62 -30 -125 -148 -216 -282 -216 -105 0 -200 54 -260 149 -37 59 -37 42 0 -47 60 -147 188 -261 342 -302 24 -7 52 -16 61 -21 23 -12 141 -12 153 0 6 5 37 16 70 26 33 9 73 24 90 32 148 75 275 264 275 411 l0 42 -215 0 c-164 0 -216 -3 -219 -12z"
       id="path4"
       style="fill:#00076c;fill-opacity:1" />
  </g>
</svg>
